test_run_dir/Chisel_Tester_File_fetchtest/fetch.vcd
$date
2024-09-11T12:03+0000
$end
$version
0.2
$end
$comment

$end
$timescale 1ns  $end
$scope module fetch $end
 $var wire 32 " io_pc_fetch_imm $end
 $var wire 1 $ io_Imem_fetch_enable $end
 $var wire 1 * pcmod $end
 $var wire 32 + io_Imem_fetch_address $end
 $var wire 1 - io_pc_fetch_jump2 $end
 $var wire 1 3 clock $end
 $var wire 32 5 io_pc_fetch_out $end
 $var wire 32 7 io_Imem_fetch_out $end
 $var wire 1 8 io_pc_fetch_jump $end
 $var wire 1 ? reset $end
 $var wire 1 B io_pc_fetch_jump3 $end
 $var wire 1 D inmmod $end
  $scope module pcmod $end
   $var wire 1 ! _T $end
   $var wire 32 # _pc_T_1 $end
   $var wire 32 & io_imm $end
   $var wire 32 ' _GEN_1 $end
   $var wire 1 , io_jump2 $end
   $var wire 1 0 clock $end
   $var wire 32 2 _GEN_3 $end
   $var wire 32 4 _GEN_0 $end
   $var wire 33 6 _pc_T $end
   $var wire 32 : pc $end
   $var wire 32 ; io_out $end
   $var wire 32 < _GEN_2 $end
   $var wire 1 = io_jump $end
   $var wire 1 @ reset $end
   $var wire 1 A io_jump3 $end
  $upscope $end
  $scope module inmmod $end
   $var wire 32 ( io_out $end
   $var wire 30 . _io_out_T $end
   $var wire 1 / clock $end
   $var wire 32 1 memory $end
   $var wire 32 > io_address $end
    $scope module memory $end
      $scope module io_out_MPORT $end
       $var wire 1 % en $end
       $var wire 32 ) data $end
       $var wire 1 9 clk $end
       $var wire 8 C addr $end
      $upscope $end
    $upscope $end
  $upscope $end
$upscope $end
$enddefinitions $end
$dumpvars
b00000000000000000000000000000000 &
b00000000000000000000000000000000 <
b00000000000000000000000000000000 '
b00000000000000000000000000000000 (
0=
b00000000000000000000000000000000 >
b00000000000000000000000000000000 7
0!
b00000000000000000000000000000000 "
b00000000000000000000000010010011 1
b00000000000000000000000000000000 #
08
b000000000000000000000000000000000 6
09
b00000000000000000000000000000000 :
b00000000000000000000000000000000 2
b00000000 C
03
b00000000000000000000000000000000 4
b00000000000000000000000000000000 5
b000000000000000000000000000000 .
0-
1%
0/
0D
00
b00000000000000000000000000000000 )
0?
0*
b00000000000000000000000000000000 +
0@
0A
0,
0$
0B
b00000000000000000000000000000000 ;
$end
#0
1?
b00000000000000000000000000000100 <
b00000000000000000000000000000100 4
1@
b00000000000000000000000000000100 #
b00000000000000000000000000000100 2
b00000000000000000000000000000100 '
b000000000000000000000000000000100 6
b00000000000000000000000010010011 (
b00000000000000000000000010010011 7
b00000000000000000000000010010011 )
#1
13
10
19
1/
#6
03
00
0?
0@
09
0/
#11
13
10
b00000000000000000000000000001000 <
b00000000000000000000000000001000 4
b00000000000000000000000000000100 5
b00000000000000000000000000001000 #
b00000000000000000000000000001000 2
19
b000000000000000000000000000001000 6
b00000000000000000000000000001000 '
b00000000000000000000000000000100 :
1/
b00000000000000000000000000000100 ;
#16
03
00
09
0/
#21
13
10
b00000000000000000000000000001100 <
b00000000000000000000000000001100 4
b00000000000000000000000000001000 5
b00000000000000000000000000001100 #
b00000000000000000000000000001100 2
19
b000000000000000000000000000001100 6
b00000000000000000000000000001100 '
b00000000000000000000000000001000 :
1/
b00000000000000000000000000001000 ;
#26
03
00
09
0/
#31
13
10
b00000000000000000000000000010000 <
b00000000000000000000000000010000 4
b00000000000000000000000000001100 5
b00000000000000000000000000010000 #
b00000000000000000000000000010000 2
19
b000000000000000000000000000010000 6
b00000000000000000000000000010000 '
b00000000000000000000000000001100 :
1/
b00000000000000000000000000001100 ;
#36
03
00
09
0/
#41
13
10
b00000000000000000000000000010100 <
b00000000000000000000000000010100 4
b00000000000000000000000000010000 5
b00000000000000000000000000010100 #
b00000000000000000000000000010100 2
19
b000000000000000000000000000010100 6
b00000000000000000000000000010100 '
b00000000000000000000000000010000 :
1/
b00000000000000000000000000010000 ;
#46
03
00
09
0/
#51
13
10
b00000000000000000000000000011000 <
b00000000000000000000000000011000 4
b00000000000000000000000000010100 5
b00000000000000000000000000011000 #
b00000000000000000000000000011000 2
19
b000000000000000000000000000011000 6
b00000000000000000000000000011000 '
b00000000000000000000000000010100 :
1/
b00000000000000000000000000010100 ;
#56
03
00
09
0/
#61
13
10
b00000000000000000000000000011100 <
b00000000000000000000000000011100 4
b00000000000000000000000000011000 5
b00000000000000000000000000011100 #
b00000000000000000000000000011100 2
19
b000000000000000000000000000011100 6
b00000000000000000000000000011100 '
b00000000000000000000000000011000 :
1/
b00000000000000000000000000011000 ;
#66
03
00
09
0/
#71
13
10
b00000000000000000000000000100000 <
b00000000000000000000000000100000 4
b00000000000000000000000000011100 5
b00000000000000000000000000100000 #
b00000000000000000000000000100000 2
19
b000000000000000000000000000100000 6
b00000000000000000000000000100000 '
b00000000000000000000000000011100 :
1/
b00000000000000000000000000011100 ;
#76
03
00
09
0/
#81
13
10
b00000000000000000000000000100100 <
b00000000000000000000000000100100 4
b00000000000000000000000000100000 5
b00000000000000000000000000100100 #
b00000000000000000000000000100100 2
19
b000000000000000000000000000100100 6
b00000000000000000000000000100100 '
b00000000000000000000000000100000 :
1/
b00000000000000000000000000100000 ;
#86
03
00
09
0/
#91
13
10
b00000000000000000000000000101000 <
b00000000000000000000000000101000 4
b00000000000000000000000000100100 5
b00000000000000000000000000101000 #
b00000000000000000000000000101000 2
19
b000000000000000000000000000101000 6
b00000000000000000000000000101000 '
b00000000000000000000000000100100 :
1/
b00000000000000000000000000100100 ;
#96
03
00
09
0/
#101
13
10
b00000000000000000000000000101100 <
b00000000000000000000000000101100 4
b00000000000000000000000000101000 5
b00000000000000000000000000101100 #
b00000000000000000000000000101100 2
19
b000000000000000000000000000101100 6
b00000000000000000000000000101100 '
b00000000000000000000000000101000 :
1/
b00000000000000000000000000101000 ;
#106
03
00
09
0/
#111
13
10
b00000000000000000000000000110000 <
b00000000000000000000000000110000 4
b00000000000000000000000000101100 5
b00000000000000000000000000110000 #
b00000000000000000000000000110000 2
19
b000000000000000000000000000110000 6
b00000000000000000000000000110000 '
b00000000000000000000000000101100 :
1/
b00000000000000000000000000101100 ;
#116
03
00
09
0/
#121
13
10
b00000000000000000000000000110100 <
b00000000000000000000000000110100 4
b00000000000000000000000000110000 5
b00000000000000000000000000110100 #
b00000000000000000000000000110100 2
19
b000000000000000000000000000110100 6
b00000000000000000000000000110100 '
b00000000000000000000000000110000 :
1/
b00000000000000000000000000110000 ;
#126
03
00
09
0/
#131
13
10
b00000000000000000000000000111000 <
b00000000000000000000000000111000 4
b00000000000000000000000000110100 5
b00000000000000000000000000111000 #
b00000000000000000000000000111000 2
19
b000000000000000000000000000111000 6
b00000000000000000000000000111000 '
b00000000000000000000000000110100 :
1/
b00000000000000000000000000110100 ;
#136
03
00
09
0/
#141
13
10
b00000000000000000000000000111100 <
b00000000000000000000000000111100 4
b00000000000000000000000000111000 5
b00000000000000000000000000111100 #
b00000000000000000000000000111100 2
19
b000000000000000000000000000111100 6
b00000000000000000000000000111100 '
b00000000000000000000000000111000 :
1/
b00000000000000000000000000111000 ;
#146
03
00
09
0/
#151
13
10
b00000000000000000000000001000000 <
b00000000000000000000000001000000 4
b00000000000000000000000000111100 5
b00000000000000000000000001000000 #
b00000000000000000000000001000000 2
19
b000000000000000000000000001000000 6
b00000000000000000000000001000000 '
b00000000000000000000000000111100 :
1/
b00000000000000000000000000111100 ;
#156
03
00
09
0/
#161
13
10
b00000000000000000000000001000100 <
b00000000000000000000000001000100 4
b00000000000000000000000001000000 5
b00000000000000000000000001000100 #
b00000000000000000000000001000100 2
19
b000000000000000000000000001000100 6
b00000000000000000000000001000100 '
b00000000000000000000000001000000 :
1/
b00000000000000000000000001000000 ;
#166
03
00
09
0/
#171
13
10
b00000000000000000000000001001000 <
b00000000000000000000000001001000 4
b00000000000000000000000001000100 5
b00000000000000000000000001001000 #
b00000000000000000000000001001000 2
19
b000000000000000000000000001001000 6
b00000000000000000000000001001000 '
b00000000000000000000000001000100 :
1/
b00000000000000000000000001000100 ;
#176
03
00
09
0/
#181
13
10
b00000000000000000000000001001100 <
b00000000000000000000000001001100 4
b00000000000000000000000001001000 5
b00000000000000000000000001001100 #
b00000000000000000000000001001100 2
19
b000000000000000000000000001001100 6
b00000000000000000000000001001100 '
b00000000000000000000000001001000 :
1/
b00000000000000000000000001001000 ;
#186
03
00
09
0/
#191
13
10
b00000000000000000000000001010000 <
b00000000000000000000000001010000 4
b00000000000000000000000001001100 5
b00000000000000000000000001010000 #
b00000000000000000000000001010000 2
19
b000000000000000000000000001010000 6
b00000000000000000000000001010000 '
b00000000000000000000000001001100 :
1/
b00000000000000000000000001001100 ;
#196
03
00
09
0/
#201
13
10
b00000000000000000000000001010100 <
b00000000000000000000000001010100 4
b00000000000000000000000001010000 5
b00000000000000000000000001010100 #
b00000000000000000000000001010100 2
19
b000000000000000000000000001010100 6
b00000000000000000000000001010100 '
b00000000000000000000000001010000 :
1/
b00000000000000000000000001010000 ;
#206
03
00
09
0/
#211
13
10
b00000000000000000000000001011000 <
b00000000000000000000000001011000 4
b00000000000000000000000001010100 5
b00000000000000000000000001011000 #
b00000000000000000000000001011000 2
19
b000000000000000000000000001011000 6
b00000000000000000000000001011000 '
b00000000000000000000000001010100 :
1/
b00000000000000000000000001010100 ;
