test_run_dir/Chisel_Tester_File_fetchtest/fetch.vcd
$date
2024-09-28T15:57+0000
$end
$version
0.2
$end
$comment

$end
$timescale 1ns  $end
$scope module fetch $end
 $var wire 7 # _T $end
 $var wire 32 & io_pc_imm_execute $end
 $var wire 1 ) pcmod $end
 $var wire 1 3 clock $end
 $var wire 32 7 io_pc_fetch_out $end
 $var wire 32 9 io_Imem_fetch_out $end
 $var wire 1 ? reset $end
 $var wire 1 D inmmod $end
  $scope module pcmod $end
   $var wire 32 " _pc_T_1 $end
   $var wire 32 % io_imm $end
   $var wire 1 - clock $end
   $var wire 32 5 _GEN_0 $end
   $var wire 33 8 _pc_T $end
   $var wire 32 : pc $end
   $var wire 32 = io_out $end
   $var wire 1 > io_jump $end
   $var wire 1 B reset $end
  $upscope $end
  $scope module inmmod $end
   $var wire 32 ' io_out $end
   $var wire 1 . clock $end
   $var wire 32 / memory $end
   $var wire 30 < _T $end
   $var wire 32 @ io_address $end
    $scope module memory $end
     $var wire 32 * MPORT $end
      $scope module MPORT $end
       $var wire 32 ! pipeline_data_0 $end
       $var wire 1 + mask $end
       $var wire 1 , valid $end
       $var wire 1 0 en $end
       $var wire 1 1 clk $end
       $var wire 10 2 addr $end
       $var wire 10 4 pipeline_addr_0 $end
       $var wire 1 6 pipeline_valid_0 $end
       $var wire 32 A data $end
      $upscope $end
      $scope module io_out_MPORT $end
       $var wire 1 $ en $end
       $var wire 32 ( data $end
       $var wire 1 ; clk $end
       $var wire 10 C addr $end
      $upscope $end
    $upscope $end
  $upscope $end
$upscope $end
$enddefinitions $end
$dumpvars
b00000000000000000000000000000000 &
1$
b000000000000000000000000000000000 8
b00000000000000000000000000000000 '
0;
b00000000000000000000000000000000 =
b00000000000000000000000000000000 (
b0000000000 C
b00000000000000000000000010010011 /
b00000000000000000000000000000000 !
0>
06
b00000000000000000000000000000000 7
b00000000000000000000000000000000 "
b00000000000000000000000000000000 9
b0000000 #
b00000000000000000000000000000000 :
10
03
b00000000000000000000000000000000 5
1+
0-
0.
b0000000000 4
0D
01
b00000000000000000000000000000000 *
0)
0?
b00000000000000000000000000000000 @
b00000000000000000000000000000000 A
0,
b0000000000 2
b00000000000000000000000000000000 %
0B
b000000000000000000000000000000 <
$end
#0
1B
1?
b00000000000000000000000000000100 "
b000000000000000000000000000000100 8
b0010011 #
b00000000000000000000000000000100 5
b00000000000000000000000010010011 '
b00000000000000000000000010010011 9
b00000000000000000000000010010011 (
1,
#1
13
1-
11
1.
b0000000 #
b00000000000000000000000000000000 '
16
b00000000000000000000000000000000 9
b00000000000000000000000000000000 (
1;
#6
03
0B
0?
0-
01
0.
0;
#11
13
1-
b000000000000000000000000000001 <
b0000000001 C
1.
b00000000000000000000000000001000 5
b00000000000100000000000100010011 '
b00000000000000000000000000000100 =
b00000000000100000000000100010011 (
b00000000000000000000000000000100 7
b00000000000000000000000000001000 "
11
b00000000000000000000000000000100 @
b000000000000000000000000000001000 8
b0010011 #
b0000000001 2
b00000000000100000000000100010011 9
b00000000000000000000000000000100 :
1;
#16
03
0-
01
0.
0;
#21
13
1-
b000000000000000000000000000010 <
b0000000001 4
b0000000010 C
1.
b00000000000000000000000000001100 5
b00000000010000000000010100010011 '
b00000000000000000000000000001000 =
b00000000010000000000010100010011 (
b00000000000000000000000000001000 7
b00000000000000000000000000001100 "
11
b00000000000000000000000000001000 @
b000000000000000000000000000001100 8
b0000000010 2
b00000000010000000000010100010011 9
b00000000000000000000000000001000 :
1;
#26
03
0-
01
0.
0;
#31
13
1-
b000000000000000000000000000011 <
b0000000010 4
b0000000011 C
1.
b00000000000000000000000000010000 5
b00000010100000000000001100010011 '
b00000000000000000000000000001100 =
b00000010100000000000001100010011 (
b00000000000000000000000000001100 7
b00000000000000000000000000010000 "
11
b00000000000000000000000000001100 @
b000000000000000000000000000010000 8
b0000000011 2
b00000010100000000000001100010011 9
b00000000000000000000000000001100 :
1;
#36
03
0-
01
0.
0;
#41
13
1-
b000000000000000000000000000100 <
b0000000011 4
b0000000100 C
1.
b00000000000000000000000000010100 5
b00000000000000000000000110010011 '
b00000000000000000000000000010000 =
b00000000000000000000000110010011 (
b00000000000000000000000000010000 7
b00000000000000000000000000010100 "
11
b00000000000000000000000000010000 @
b000000000000000000000000000010100 8
b0000000100 2
b00000000000000000000000110010011 9
b00000000000000000000000000010000 :
1;
#46
03
0-
01
0.
0;
#51
13
1-
b000000000000000000000000000101 <
b0000000100 4
b0000000101 C
1.
b00000000000000000000000000011000 5
b00000000010000011000001000010011 '
b00000000000000000000000000010100 =
b00000000010000011000001000010011 (
b00000000000000000000000000010100 7
b00000000000000000000000000011000 "
11
b00000000000000000000000000010100 @
b000000000000000000000000000011000 8
b0000000101 2
b00000000010000011000001000010011 9
b00000000000000000000000000010100 :
1;
#56
03
0-
01
0.
0;
#61
13
1-
b000000000000000000000000000110 <
b0000000101 4
b0000000110 C
1.
b00000000000000000000000000011100 5
b00010000000100011010000000100011 '
b00000000000000000000000000011000 =
b00010000000100011010000000100011 (
b00000000000000000000000000011000 7
b00000000000000000000000000011100 "
11
b00000000000000000000000000011000 @
b000000000000000000000000000011100 8
b0100011 #
b0000000110 2
b00010000000100011010000000100011 9
b00000000000000000000000000011000 :
1;
#66
03
0-
01
0.
0;
#71
13
1-
b000000000000000000000000000111 <
b0000000110 4
b0000000111 C
1.
b00000000000000000000000000100000 5
b00010000001000100010000000100011 '
b00000000000000000000000000011100 =
b00010000001000100010000000100011 (
b00000000000000000000000000011100 7
b00000000000000000000000000100000 "
11
b00000000000000000000000000011100 @
b000000000000000000000000000100000 8
b0000000111 2
b00010000001000100010000000100011 9
b00000000000000000000000000011100 :
1;
#76
03
0-
01
0.
0;
#81
13
1-
b000000000000000000000000001000 <
b0000000111 4
b0000001000 C
1.
b00000000000000000000000000100100 5
b00000000100000000000011100010011 '
b00000000000000000000000000100000 =
b00000000100000000000011100010011 (
b00000000000000000000000000100000 7
b00000000000000000000000000100100 "
11
b00000000000000000000000000100000 @
b000000000000000000000000000100100 8
b0010011 #
b0000001000 2
b00000000100000000000011100010011 9
b00000000000000000000000000100000 :
1;
#86
03
0-
01
0.
0;
#91
13
1-
b000000000000000000000000001001 <
b0000001000 4
b0000001001 C
1.
b00000000000000000000000000101000 5
b00000000100000000000001010010011 '
b00000000000000000000000000100100 =
b00000000100000000000001010010011 (
b00000000000000000000000000100100 7
b00000000000000000000000000101000 "
11
b00000000000000000000000000100100 @
b000000000000000000000000000101000 8
b0000001001 2
b00000000100000000000001010010011 9
b00000000000000000000000000100100 :
1;
#96
03
0-
01
0.
0;
#101
13
1-
b000000000000000000000000001010 <
b0000001001 4
b0000001010 C
1.
b00000000000000000000000000101100 5
b00000000100000000000011010010011 '
b00000000000000000000000000101000 =
b00000000100000000000011010010011 (
b00000000000000000000000000101000 7
b00000000000000000000000000101100 "
11
b00000000000000000000000000101000 @
b000000000000000000000000000101100 8
b0000001010 2
b00000000100000000000011010010011 9
b00000000000000000000000000101000 :
1;
#106
03
0-
01
0.
0;
#111
13
1-
b000000000000000000000000001011 <
b0000001010 4
b0000001011 C
1.
b00000000000000000000000000110000 5
b00000000010000000000011110010011 '
b00000000000000000000000000101100 =
b00000000010000000000011110010011 (
b00000000000000000000000000101100 7
b00000000000000000000000000110000 "
11
b00000000000000000000000000101100 @
b000000000000000000000000000110000 8
b0000001011 2
b00000000010000000000011110010011 9
b00000000000000000000000000101100 :
1;
#116
03
0-
01
0.
0;
#121
13
1-
b000000000000000000000000001100 <
b0000001011 4
b0000001100 C
1.
b00000000000000000000000000110100 5
b00000000010000000000010010010011 '
b00000000000000000000000000110000 =
b00000000010000000000010010010011 (
b00000000000000000000000000110000 7
b00000000000000000000000000110100 "
11
b00000000000000000000000000110000 @
b000000000000000000000000000110100 8
b0000001100 2
b00000000010000000000010010010011 9
b00000000000000000000000000110000 :
1;
#126
03
0-
01
0.
0;
#131
13
1-
b000000000000000000000000001101 <
b0000001100 4
b0000001101 C
1.
b00000000000000000000000000111000 5
b00000000001000001000010000110011 '
b00000000000000000000000000110100 =
b00000000001000001000010000110011 (
b00000000000000000000000000110100 7
b00000000000000000000000000111000 "
11
b00000000000000000000000000110100 @
b000000000000000000000000000111000 8
b0110011 #
b0000001101 2
b00000000001000001000010000110011 9
b00000000000000000000000000110100 :
1;
#136
03
0-
01
0.
0;
#141
13
1-
b000000000000000000000000001110 <
b0000001101 4
b0000001110 C
1.
b00000000000000000000000000000000 5
b00000010011000101000000001100011 '
b00000000000000000000000000111000 =
b00000010011000101000000001100011 (
b00000000000000000000000000111000 7
1>
b00000000000000000000000000111100 "
11
b00000000000000000000000000111000 @
b000000000000000000000000000111100 8
b1100011 #
b0000001110 2
b00000010011000101000000001100011 9
b00000000000000000000000000111000 :
1;
#146
03
0-
01
0.
0;
#151
13
1-
b000000000000000000000000000000 <
b0000001110 4
b0000000000 C
1.
b00000000000000000000000000000100 5
b00000000000000000000000000000000 '
b00000000000000000000000000000000 =
b00000000000000000000000000000000 (
b00000000000000000000000000000000 7
0>
b00000000000000000000000000000100 "
11
b00000000000000000000000000000000 @
b000000000000000000000000000000100 8
b0000000 #
b0000000000 2
b00000000000000000000000000000000 9
b00000000000000000000000000000000 :
1;
#156
03
0-
01
0.
0;
#161
13
1-
b000000000000000000000000000001 <
b0000000000 4
b0000000001 C
1.
b00000000000000000000000000001000 5
b00000000000000000000000000000100 =
b00000000000000000000000000000100 7
b00000000000000000000000000001000 "
11
b00000000000000000000000000000100 @
b000000000000000000000000000001000 8
b0000000001 2
b00000000000000000000000000000100 :
1;
#166
03
0-
01
0.
0;
#171
13
1-
b000000000000000000000000000010 <
b0000000001 4
b0000000010 C
1.
b00000000000000000000000000001100 5
b00000000000000000000000000001000 =
b00000000000000000000000000001000 7
b00000000000000000000000000001100 "
11
b00000000000000000000000000001000 @
b000000000000000000000000000001100 8
b0000000010 2
b00000000000000000000000000001000 :
1;
#176
03
0-
01
0.
0;
#181
13
1-
b000000000000000000000000000011 <
b0000000010 4
b0000000011 C
1.
b00000000000000000000000000010000 5
b00000000000000000000000000001100 =
b00000000000000000000000000001100 7
b00000000000000000000000000010000 "
11
b00000000000000000000000000001100 @
b000000000000000000000000000010000 8
b0000000011 2
b00000000000000000000000000001100 :
1;
#186
03
0-
01
0.
0;
#191
13
1-
b000000000000000000000000000100 <
b0000000011 4
b0000000100 C
1.
b00000000000000000000000000010100 5
b00000000000000000000000000010000 =
b00000000000000000000000000010000 7
b00000000000000000000000000010100 "
11
b00000000000000000000000000010000 @
b000000000000000000000000000010100 8
b0000000100 2
b00000000000000000000000000010000 :
1;
#196
03
0-
01
0.
0;
#201
13
1-
b000000000000000000000000000101 <
b0000000100 4
b0000000101 C
1.
b00000000000000000000000000011000 5
b00000000000000000000000000010100 =
b00000000000000000000000000010100 7
b00000000000000000000000000011000 "
11
b00000000000000000000000000010100 @
b000000000000000000000000000011000 8
b0000000101 2
b00000000000000000000000000010100 :
1;
#206
03
0-
01
0.
0;
#211
13
1-
b000000000000000000000000000110 <
b0000000101 4
b0000000110 C
1.
b00000000000000000000000000011100 5
b00000000000000000000000000011000 =
b00000000000000000000000000011000 7
b00000000000000000000000000011100 "
11
b00000000000000000000000000011000 @
b000000000000000000000000000011100 8
b0000000110 2
b00000000000000000000000000011000 :
1;
