test_run_dir/Chisel_Tester_File_topcoretest/topcore.vcd
$date
2024-10-02T20:04+0000
$end
$version
0.2
$end
$comment

$end
$timescale 1ns  $end
$scope module topcore $end
 $var wire 32 ) io_out $end
 $var wire 7 3 _T $end
 $var wire 1 > wb_module $end
 $var wire 32 D _GEN_5 $end
 $var wire 32 ` _decode_module_io_decode_regf_wdata_T_1 $end
 $var wire 1 ~ fetch_module $end
 $var wire 33 "I _decode_module_io_decode_regf_wdata_T $end
 $var wire 32 "X _GEN_1 $end
 $var wire 1 "r clock $end
 $var wire 32 "| _fetch_module_io_pc_imm_execute_T_1 $end
 $var wire 32 #0 _decode_module_io_decode_regf_wdata_T_3 $end
 $var wire 1 #S _GEN_0 $end
 $var wire 33 #X _decode_module_io_decode_regf_wdata_T_2 $end
 $var wire 1 #^ execute_module $end
 $var wire 33 #` _fetch_module_io_pc_imm_execute_T $end
 $var wire 1 #j decode_module $end
 $var wire 1 #l reset $end
 $var wire 32 #t _GEN_3 $end
  $scope module fetch_module.inmmod $end
  $upscope $end
  $scope module decode_module $end
   $var wire 1 9 clock $end
   $var wire 4 = io_decode_func3_7 $end
   $var wire 32 M io_decode_regf_wdata $end
   $var wire 32 i io_decode_regf_rdata2 $end
   $var wire 1 k cumod $end
   $var wire 32 n io_decode_instruction $end
   $var wire 1 "F regfmod $end
   $var wire 1 "g immgmod $end
   $var wire 32 ## io_decode_imm_out $end
   $var wire 32 #, io_decode_regf_rdata1 $end
    $scope module regfmod $end
     $var wire 32 ! _GEN_17 $end
     $var wire 32 # _GEN_44 $end
     $var wire 32 $ _GEN_38 $end
     $var wire 32 % _GEN_65 $end
     $var wire 32 & _GEN_23 $end
     $var wire 32 + _GEN_50 $end
     $var wire 32 , regs_20 $end
     $var wire 32 - _GEN_59 $end
     $var wire 32 . regs_29 $end
     $var wire 5 / io_raddr2 $end
     $var wire 32 1 regs_8 $end
     $var wire 32 2 regs_23 $end
     $var wire 32 5 _GEN_11 $end
     $var wire 32 6 _GEN_26 $end
     $var wire 32 7 regs_17 $end
     $var wire 32 : _GEN_94 $end
     $var wire 32 ; _GEN_47 $end
     $var wire 32 < io_rdata2 $end
     $var wire 32 ? _GEN_29 $end
     $var wire 32 @ _GEN_14 $end
     $var wire 32 B _GEN_82 $end
     $var wire 32 F _GEN_6 $end
     $var wire 5 G io_waddr $end
     $var wire 32 H _GEN_20 $end
     $var wire 32 J regs_2 $end
     $var wire 32 L regs_11 $end
     $var wire 32 P regs_26 $end
     $var wire 32 Q _GEN_76 $end
     $var wire 32 U _GEN_70 $end
     $var wire 32 V _GEN_9 $end
     $var wire 32 X _GEN_64 $end
     $var wire 32 Y _GEN_58 $end
     $var wire 32 Z _GEN_91 $end
     $var wire 32 ] _GEN_79 $end
     $var wire 32 ^ regs_5 $end
     $var wire 32 e _GEN_85 $end
     $var wire 32 f regs_14 $end
     $var wire 1 h _io_rdata2_T $end
     $var wire 32 o _GEN_52 $end
     $var wire 32 q _GEN_3 $end
     $var wire 32 r _GEN_73 $end
     $var wire 32 s _GEN_67 $end
     $var wire 32 t _GEN_31 $end
     $var wire 32 z _GEN_88 $end
     $var wire 32 } _GEN_46 $end
     $var wire 32 "& _GEN_28 $end
     $var wire 32 "( _GEN_40 $end
     $var wire 32 ") _GEN_55 $end
     $var wire 32 "+ _GEN_13 $end
     $var wire 32 "- regs_31 $end
     $var wire 32 "3 _GEN_49 $end
     $var wire 32 "4 _GEN_61 $end
     $var wire 32 "7 _GEN_34 $end
     $var wire 5 "8 io_raddr1 $end
     $var wire 32 ": regs_28 $end
     $var wire 32 "; _GEN_22 $end
     $var wire 32 "< _GEN_37 $end
     $var wire 32 "= _GEN_16 $end
     $var wire 32 "> regs_13 $end
     $var wire 32 "C _GEN_43 $end
     $var wire 32 "G _GEN_93 $end
     $var wire 32 "H io_wdata $end
     $var wire 32 "L _GEN_25 $end
     $var wire 32 "M regs_7 $end
     $var wire 32 "O _GEN_2 $end
     $var wire 32 "P _GEN_19 $end
     $var wire 32 "Q regs_16 $end
     $var wire 32 "R regs_22 $end
     $var wire 32 "T _GEN_87 $end
     $var wire 32 "U io_rdata1 $end
     $var wire 32 "V _GEN_10 $end
     $var wire 32 "Y _GEN_81 $end
     $var wire 32 "Z _GEN_75 $end
     $var wire 32 "] _GEN_69 $end
     $var wire 32 "^ regs_1 $end
     $var wire 32 "_ _GEN_60 $end
     $var wire 32 "` regs_19 $end
     $var wire 32 "b regs_25 $end
     $var wire 32 "c _GEN_5 $end
     $var wire 32 "e regs_10 $end
     $var wire 1 "j io_wen $end
     $var wire 1 "l _T $end
     $var wire 32 "m _GEN_42 $end
     $var wire 32 "n regs_4 $end
     $var wire 32 "o _GEN_90 $end
     $var wire 32 "p _GEN_84 $end
     $var wire 32 "s _GEN_57 $end
     $var wire 32 "v _GEN_8 $end
     $var wire 32 "x _GEN_63 $end
     $var wire 32 "z _GEN_78 $end
     $var wire 32 #! _GEN_24 $end
     $var wire 32 #$ _GEN_51 $end
     $var wire 32 #( _GEN_66 $end
     $var wire 1 #+ clock $end
     $var wire 32 #- _GEN_45 $end
     $var wire 32 #/ _GEN_72 $end
     $var wire 32 #1 _GEN_30 $end
     $var wire 32 #3 _GEN_39 $end
     $var wire 1 #4 _io_rdata1_T $end
     $var wire 32 #6 _GEN_12 $end
     $var wire 32 #8 regs_30 $end
     $var wire 32 #: _GEN_27 $end
     $var wire 32 #< _GEN_54 $end
     $var wire 32 #B _GEN_33 $end
     $var wire 32 #C _GEN_48 $end
     $var wire 32 #D regs_24 $end
     $var wire 32 #E regs_3 $end
     $var wire 32 #G _GEN_36 $end
     $var wire 32 #I _GEN_21 $end
     $var wire 32 #J regs_12 $end
     $var wire 32 #K regs_27 $end
     $var wire 32 #L _GEN_15 $end
     $var wire 32 #Q _GEN_18 $end
     $var wire 32 #W _GEN_86 $end
     $var wire 32 #[ regs_6 $end
     $var wire 32 #] regs_15 $end
     $var wire 32 #a _GEN_71 $end
     $var wire 32 #b _GEN_1 $end
     $var wire 32 #d regs_21 $end
     $var wire 32 #e _GEN_92 $end
     $var wire 32 #g regs_9 $end
     $var wire 32 #h _GEN_4 $end
     $var wire 32 #i _GEN_95 $end
     $var wire 32 #m _GEN_53 $end
     $var wire 32 #n regs_18 $end
     $var wire 32 #o _GEN_68 $end
     $var wire 32 #q _GEN_80 $end
     $var wire 32 #u _GEN_74 $end
     $var wire 32 #v _GEN_89 $end
     $var wire 32 #w regs_0 $end
     $var wire 32 #| _GEN_56 $end
     $var wire 32 #} _GEN_7 $end
     $var wire 32 $! _GEN_62 $end
     $var wire 32 $$ _GEN_83 $end
     $var wire 32 $% _GEN_77 $end
     $var wire 32 $( _GEN_41 $end
     $var wire 32 $) _GEN_35 $end
    $upscope $end
    $scope module immgmod $end
     $var wire 5 4 io_imm_lo_2 $end
     $var wire 32 A _GEN_2 $end
     $var wire 32 I _io_imm_T_16 $end
     $var wire 32 \ _GEN_5 $end
     $var wire 11 c io_imm_hi_hi_hi_1 $end
     $var wire 20 l io_imm_hi $end
     $var wire 1 p _io_imm_T $end
     $var wire 4 u io_imm_lo_hi_lo $end
     $var wire 32 x io_imm $end
     $var wire 10 "# io_imm_lo_hi_lo_1 $end
     $var wire 32 "$ _io_imm_T_2 $end
     $var wire 1 "0 _T $end
     $var wire 1 "? io_imm_lo_hi_hi_1 $end
     $var wire 20 "@ io_imm_hi_4 $end
     $var wire 32 "B _GEN_4 $end
     $var wire 32 "D _io_imm_T_12 $end
     $var wire 32 "K _io_imm_T_8 $end
     $var wire 32 "a _GEN_1 $end
     $var wire 19 "q io_imm_hi_hi_hi $end
     $var wire 8 "~ io_imm_hi_lo_2 $end
     $var wire 7 #" io_imm_hi_lo $end
     $var wire 32 #* io_instruction $end
     $var wire 7 #. opcode $end
     $var wire 6 #M io_imm_lo_hi_hi $end
     $var wire 32 #N _GEN_3 $end
     $var wire 32 #\ _io_imm_T_11 $end
     $var wire 32 #_ _GEN_6 $end
     $var wire 32 #z _GEN_0 $end
     $var wire 12 $" io_imm_lo $end
     $var wire 1 $& io_imm_hi_lo_1 $end
    $upscope $end
    $scope module cumod $end
     $var wire 32 T io_instruction $end
     $var wire 3 [ io_func3_7_lo $end
     $var wire 3 j _GEN_4 $end
     $var wire 4 y io_func3_7 $end
     $var wire 1 "% _GEN_7 $end
     $var wire 5 "N io_rd $end
     $var wire 4 "[ _GEN_6 $end
     $var wire 4 "d _io_func3_7_T $end
     $var wire 4 "u _GEN_0 $end
     $var wire 5 "w io_rs2 $end
     $var wire 1 #% _GEN_3 $end
     $var wire 7 #7 _T $end
     $var wire 1 #@ io_func3_7_hi $end
     $var wire 1 #R io_en_reg $end
     $var wire 3 #U _GEN_2 $end
     $var wire 1 #r _GEN_5 $end
     $var wire 5 $' io_rs1 $end
    $upscope $end
  $upscope $end
  $scope module execute_module $end
   $var wire 7 K _T $end
   $var wire 32 O io_B_alu_execute $end
   $var wire 32 R io_A_alu_execute $end
   $var wire 1 a _GEN_12 $end
   $var wire 4 d io_op_alu_execute $end
   $var wire 1 "' _GEN_9 $end
   $var wire 1 "/ alumod $end
   $var wire 32 "1 io_pc_imm_added $end
   $var wire 32 "2 _GEN_0 $end
   $var wire 32 "5 io_imm_execute $end
   $var wire 32 "S io_out_alu_execute $end
   $var wire 1 "k _GEN_11 $end
   $var wire 32 "y io_pc_fetch $end
   $var wire 1 "} io_jump_execute $end
   $var wire 33 #= _io_pc_imm_added_T $end
   $var wire 1 #? _GEN_8 $end
   $var wire 1 #Z _GEN_13 $end
   $var wire 32 #p io_ins_execute $end
   $var wire 1 #{ _GEN_10 $end
   $var wire 32 $# _GEN_1 $end
    $scope module alumod $end
     $var wire 32 * _io_out_T_10 $end
     $var wire 32 0 _GEN_4 $end
     $var wire 32 8 io_A $end
     $var wire 32 E _io_out_T_5 $end
     $var wire 32 W _io_out_T_8 $end
     $var wire 33 _ _io_out_T $end
     $var wire 33 g _io_out_T_2 $end
     $var wire 4 "! io_op $end
     $var wire 63 ", _GEN_6 $end
     $var wire 63 ". _GEN_11 $end
     $var wire 63 "9 _GEN_9 $end
     $var wire 32 "J _io_out_T_1 $end
     $var wire 32 "W _GEN_3 $end
     $var wire 32 "\ _io_out_T_4 $end
     $var wire 63 "f _io_out_T_7 $end
     $var wire 5 "h shiftamount $end
     $var wire 32 "i io_out $end
     $var wire 32 #& _GEN_2 $end
     $var wire 1 #' _T $end
     $var wire 32 #) _io_out_T_11 $end
     $var wire 63 #; _GEN_10 $end
     $var wire 32 #> io_B $end
     $var wire 63 #A _GEN_5 $end
     $var wire 63 #O _GEN_8 $end
     $var wire 32 #P _io_out_T_6 $end
     $var wire 32 #Y _io_out_T_9 $end
     $var wire 32 #s _io_out_T_3 $end
     $var wire 63 #~ _GEN_7 $end
    $upscope $end
  $upscope $end
  $scope module decode_module.immgmod $end
  $upscope $end
  $scope module fetch_module.pcmod $end
  $upscope $end
  $scope module decode_module.regfmod $end
  $upscope $end
  $scope module execute_module.alumod $end
  $upscope $end
  $scope module fetch_module $end
   $var wire 32 ( io_pc_fetch_out $end
   $var wire 1 N io_jump_fetch $end
   $var wire 32 "* io_pc_imm_execute $end
   $var wire 1 "6 clock $end
   $var wire 1 #2 reset $end
   $var wire 32 #F io_Imem_fetch_out $end
   $var wire 1 #c pcmod $end
   $var wire 1 #y inmmod $end
    $scope module inmmod $end
     $var wire 32 " io_address $end
     $var wire 32 ' io_out $end
     $var wire 1 v clock $end
     $var wire 30 { _io_out_T $end
     $var wire 32 "E memory $end
      $scope module memory $end
        $scope module io_out_MPORT $end
         $var wire 32 S data $end
         $var wire 1 "" en $end
         $var wire 1 #f clk $end
         $var wire 10 #x addr $end
        $upscope $end
      $upscope $end
    $upscope $end
    $scope module pcmod $end
     $var wire 32 C pc $end
     $var wire 32 b _GEN_0 $end
     $var wire 33 m _pc_T $end
     $var wire 1 w clock $end
     $var wire 32 "A io_out $end
     $var wire 1 "{ reset $end
     $var wire 1 #9 io_jump $end
     $var wire 32 #H io_imm $end
     $var wire 32 #V _pc_T_1 $end
    $upscope $end
  $upscope $end
  $scope module decode_module.cumod $end
  $upscope $end
  $scope module wb_module $end
   $var wire 1 | _io_wb_dataout_T_1 $end
   $var wire 32 "t io_ins $end
   $var wire 32 #5 io_wb_dataout $end
   $var wire 32 #T io_wb_alu_out $end
   $var wire 7 #k _io_wb_dataout_T $end
  $upscope $end
$upscope $end
$enddefinitions $end
$dumpvars
b0000000000 "#
b00000000000000000000000000000000 #}
b00000000000000000000000000000000 #h
0#c
b00000000000000000000000000000000 #K
b00000000000000000000000000000000 "U
b00000000000000000000000000000000 #6
b00000000000000000000000000000000 r
b00000000000000000000000000000000 "M
b00000000000000000000000000000000 #*
b00000000000000000000000000000000 "4
b00000000000000000000000000000000 Q
b0000000 #7
0~
0"r
0#S
b00000000000000000000000000000000 b
0a
b00000000000000000000000000000000 #w
b00000000000000000000000000000000 E
b00000000000000000000000000000000 0
b00000000000000000000000000000000 #o
b00000000000000000000000000000000 "y
b00000000000000000000000000000000 "\
b00000000000000000000000000000000 "G
b00000000000000000000000000000000 #(
b00000000000000000000000000000000 "*
b000000000000000000000000000000000000000000000000000000000000000 #O
b00000000000000000000000000000000 s
0#2
b00000000000000000000000000000000 #s
b00000000000000000000000000000000 A
b00000000000000000000000000000000 #V
b00000000000000000000000000000000 $
b00000000000000000000000000000000 "X
b00000000000000000000000000000000 "C
b00000000000000000000000000000000 #$
b00000000000000000000000000000000 "&
b000000000000000000000000000000000 "I
0"l
b00000000000000000000000000000000 q
0$&
0p
b00000000000000000000000000000000 T
b00000000000000000000000000000000 ?
b00000000000000000000000000000000 #i
0>
b00000000000000000000 "@
b00000000000000010010000010110111 "E
b000000000000000000000000000000000 #X
0"}
0#^
b00000 "8
b00000000000000000000000000000000 e
b00000000000000000000000000000000 P
b00000000000000000000000000000000 #z
b00000000000000000000000000000000 #e
b00000 G
b00000000000000000000000000000000 #H
b00000000000000000000000000000000 $)
b00000000000000000000000000000000 "5
0"?
b00000000000000000000000000000000 #v
b00000000000000000000000000000000 "c
b00000000000000000000000000000000 #D
b00000000000000000000000000000000 $%
b00000000000000000000000000000000 "1
b000000000000000000000000000000000 _
b000000000000000000000000000000000000000000000000000000000000000 #A
b00000000000000000000000000000000 "W
b00000000000000000000000000000000 #8
b00000000000000000000000000000000 t
b00000000000000000000000000000000 B
b00000000000000000000000000000000 -
b00000000000000000000000000000000 "v
b00000000000000000000000000000000 #W
b000 #U
0"k
b00000000000000000000000000000000 "S
b00000000000000000000000000000000 S
b00000000000000000000000000000000 !
0k
0#@
0N
09
b00000000000000000000000000000000 2
b00000000000000000000000000000000 #G
b00000000000000000000000000000000 $(
b00000000000000000000000000000000 "Q
b0000000 #"
0|
b0000 "[
b00000000000000000000000000000000 #u
b00000000000000000000000000000000 .
b00000000000000000000000000000000 "b
b00000000000000000000000000000000 #C
b00000000000000000000000000000000 $$
b00000000000000000000000000000000 #&
b00000000000000000000000000000000 M
b00000000000000000000000000000000 "(
1""
b00000000000000000000000000000000 "^
b00000000000000000000000000000000 "A
b00000000000000000000000000000000 ^
b00000000000000000000000000000000 "$
b00000000000000000000000000000000 ,
b0000000 3
b00000000000000000000000000000000 o
b0000 =
b00000000000000000000000000000000 #g
b00000 4
b00000000000000000000000000000000 "i
b00000000000000000000000000000000 "T
b000000000000000000000000000000000 m
b00000000000000000000000000000000 #5
b00000000000000000000000000000000 #J
b00000000000000000000000000000000 "7
b000000000000000000000000000000000000000000000000000000000000000 "f
0"{
0#{
b00000000000000000000000000000000 "m
b00000000000000000000000000000000 #N
b00000000000000000000000000000000 "e
b00000000000000000000000000000000 "P
b00000000000000000000000000000000 #1
b00000000000000000000000000000000 #F
b00000000000000000000000000000000 "3
0#Z
0h
0#R
b00000000000000000000000000000000 L
b000000000000000000000000000000000000000000000000000000000000000 ",
b00000 "w
b00000000000000000000000000000000 z
b00000000000 c
0#9
b00000000000000000000000000000000 ]
b00000000000000000000000000000000 H
b00000000000000000000000000000000 @
b00000000000000000000000000000000 +
b00000000000000000000000000000000 "t
b00000000000000000000000000000000 "_
b00000000000000000000000000000000 $!
b00000000000000000000000000000000 "B
b00000000000000000000000000000000 ##
b00000000000000000000000000000000 n
b00000000000000000000000000000000 Y
b00000000000000000000000000000000 #n
b00000000000000000000000000000000 <
b00000000000000000000000000000000 '
b00000000000000000000000000000000 "p
b00000000000000000000000000000000 #Q
b00000000000000000000000000000000 ">
b00000000000000000000 l
b00000000000000000000000000000000 #E
0"g
0#+
b00000000000000000000000000000000 "2
b00000000000000000000000000000000 O
b00000000000000000000000000000000 :
b00000000000000000000000000000000 #d
b00000 $'
b00000000000000000000000000000000 "`
b00000000000000000000000000000000 }
0"F
0#'
b00000000000000000000000000000000 `
b00000000000000000000000000000000 6
b00000000000000000000000000000000 #q
0#l
b00000000000000000000000000000000 "s
b00000000000000000000000000000000 #T
b00000000 "~
b00000000000000000000000000000000 ;
b0000 "!
b00000000000000000000000000000000 "o
b00000000000000000000000000000000 #P
0v
0"j
b00000000000000000000000000000000 "R
b00000000000000000000000000000000 #3
b00000000000000000000000000000000 Z
b00000000000000000000000000000000 "=
b00000000000000000000000000000000 (
0#y
b00000000000000000000000000000000 #a
b00000000000000000000000000000000 #L
b00000000000000000000000000000000 #/
b000000000000000000000000000000000 g
b00000000000000000000000000000000 V
b000000000000000000000000000000000000000000000000000000000000000 ".
b00000000000000000000000000000000 J
b00000000000000000000000000000000 #t
b00000000000000000000000000000000 #_
b00000000000000000000000000000000 "a
b00000000000000000000000000000000 "L
b00000000000000000000000000000000 i
b00000000000000000000000000000000 #-
b00000000000000000000000000000000 #B
b00000000000000000000000000000000 "D
b00000000000000000000000000000000 $#
b0000000000 #x
b000000 #M
0w
b00000000000000000000000000000000 #p
b00000000000000000000000000000000 "z
b00000000000000000000000000000000 #[
b00000000000000000000000000000000 )
b00000000000000000000000000000000 "]
b00000000000000000000000000000000 #>
b00000000000000000000000000000000 "H
b00000000000000000000000000000000 #)
b00000000000000000000000000000000 #!
b00000000000000000000000000000000 "+
b000000000000000000000000000000000000000000000000000000000000000 #;
b0000000 #.
b00000000000000000000000000000000 "<
b00000000000000000000000000000000 D
b0000000 K
b000000000000000000000000000000000000000000000000000000000000000 "9
b00000000000000000000000000000000 U
b00000000000000000000000000000000 8
b00000000000000000000000000000000 #b
b00000000000000000000000000000000 #
b00000 /
b00000000000000000000000000000000 "O
b00000000000000000000000000000000 ":
b00000000000000000000000000000000 #0
b00000 "N
b00000000000000000000000000000000 f
0#%
0"/
b00000000000000000000000000000000 I
b000000000000 $"
0"'
b00000000000000000000000000000000 #I
b0000000 #k
b00000000000000000000000000000000 "K
b00000000000000000000000000000000 #,
0#r
0#j
b0000 y
b0000 d
b00000000000000000000000000000000 \
b000000000000000000000000000000 {
0"%
b00000000000000000000000000000000 #\
b00000000000000000000000000000000 *
b0000000000000000000 "q
b000000000000000000000000000000000 #`
0#f
b0000 u
0#4
b00000000000000000000000000000000 ";
b00000000000000000000000000000000 X
b00000000000000000000000000000000 C
0"6
b00000000000000000000000000000000 #m
b00000000000000000000000000000000 &
b00000000000000000000000000000000 "Z
b0000 "d
b00000000000000000000000000000000 7
b00000000000000000000000000000000 "
b00000000000000000000000000000000 "V
b0000 "u
b000000000000000000000000000000000 #=
b000 [
b00000000000000000000000000000000 "|
b00000000000000000000000000000000 #]
b00000000000000000000000000000000 "J
b00000000000000000000000000000000 R
b00000000000000000000000000000000 #|
0"0
b00000000000000000000000000000000 "-
b00000000000000000000000000000000 5
b00000000000000000000000000000000 "x
b00000000000000000000000000000000 #Y
b00000 "h
0#?
b00000000000000000000000000000000 x
b00000000000000000000000000000000 #<
b00000000000000000000000000000000 ")
b00000000000000000000000000000000 F
b00000000000000000000000000000000 1
b000 j
b00000000000000000000000000000000 W
b00000000000000000000000000000000 %
b00000000000000000000000000000000 "n
b00000000000000000000000000000000 "Y
b00000000000000000000000000000000 #:
b000000000000000000000000000000000000000000000000000000000000000 #~
$end
#0
b00000000000000010010000010110111 "t
b00001 4
b00000000000000010010000000000000 "B
b00000000000000010010000000000000 ##
b00000000000000010010000010110111 S
1#l
b0110111 K
b00000000000000000000000000000100 b
b00000000000000010010000000000000 M
1#4
b00001 G
b0110111 #.
b00010 "8
b00000000000000010010000000000000 I
1"l
1$&
b0010 "d
b00000000000000010010000000000000 #0
b00000000000000000000000000000100 `
1#2
b00000000000000010010000010110111 #*
b000000000000000000000000000000100 "I
b00000000000000000000000000000001 "K
b00000000000000010010000000000000 \
b000000000000000010010000000000000 #`
b00000000000000010010000010110111 T
b000000000000000010010000000000000 #X
b000000000000000010010000000000000 #=
b00000000000000010010000000000000 "*
b000000000000000000000000000000100 m
1"{
b00000000000000000000100000000000 #\
b0110111 3
b0110111 #k
b0010 "u
b00000000000000000000000000000100 #V
b0110111 #7
b00001 "N
b00000000000000010010000000000000 #N
b00000000000000010010000010110111 #F
b00010 $'
b00000000000000010010000000000000 %
b00000000000000010010000000000000 D
b00000000000000010010000000000000 "|
b00000000000000010010000000000000 #H
b00000000000000010010000010110111 '
b00000000000000010010000000000000 x
b00000000000000010010000000000000 "5
b010 [
b00010010 "~
b00000000000000010010000000000000 #_
b00000000000000010010000000000000 "D
1#'
b00000000000000010010000000000000 "1
b00000000000000010010000010110111 #p
b00000000000000010010000000000000 "H
b00000000000000010010 "@
b00000000000000010010000010110111 n
#1
1"6
1v
1w
19
1#+
1"r
1#f
#6
0"6
0v
0#2
0w
0#l
09
0#+
0"r
0"{
0#f
#11
b00000000000000000000000000000000 "t
b00000 4
b00000000000000000000000000000000 "B
b00000000000000000000000000000000 ##
b00000000000000000000000000000000 S
b0000000 K
b00000000000000000000000000001000 b
b00000000000000000000000000000000 M
1#f
0#4
1"6
b00000 G
b0000000 #.
b000000000000000000000000000001 {
b00000 "8
b00000000000000000000000000000000 I
0"l
0$&
b0000 "d
b00000000000000000000000000000100 #0
b00000000000000000000000000001000 `
b00000000000000000000000000000100 C
b00000000000000000000000000000000 #*
1w
b000000000000000000000000000001000 "I
b00000000000000000000000000000100 (
b00000000000000000000000000000000 "K
b00000000000000000000000000000000 \
b000000000000000000000000000000000 #`
b00000000000000000000000000000000 T
b000000000000000000000000000000100 #X
b00000000000000000000000000000100 "
1#Z
b00000000000000000000000000000100 "y
19
b000000000000000000000000000000100 #=
b00000000000000000000000000000100 "*
b000000000000000000000000000001000 m
b00000000000000000000000000000000 #\
b0000000 3
b00000000000000000000000000000100 "A
b0000000 #k
b0000 "u
b00000000000000000000000000001000 #V
b0000000 #7
b00000 "N
b0000000001 #x
b00000000000000000000000000000000 #N
b00000000000000000000000000000000 #F
b00000 $'
b00000000000000000000000000000000 %
1v
b00000000000000000000000000000000 D
b00000000000000000000000000000000 "|
b00000000000000000000000000000100 #H
b00000000000000000000000000000000 '
1#+
b00000000000000000000000000000000 x
b00000000000000000000000000000000 "5
b000 [
b00000000 "~
b00000000000000000000000000000000 #_
b00000000000000000000000000000000 "D
b00000000000000000000000000000100 "1
b00000000000000000000000000000000 #p
1"r
b00000000000000000000000000000000 "H
b00000000000000000000 "@
b00000000000000000000000000000000 n
#16
0"6
0v
0w
09
0#+
0"r
0#f
#21
b00000000000000000000000000001000 #0
b00000000000000000000000000001000 "A
b00000000000000000000000000001100 `
b00000000000000000000000000001000 C
1v
b00000000000000000000000000001100 #V
b000000000000000000000000000001100 "I
1w
b00000000000000000000000000001000 #H
1#+
b00000000000000000000000000001000 (
b00000000000000000000000000001100 b
1#f
b000000000000000000000000000001000 #X
b00000000000000000000000000001000 "
1"6
b00000000000000000000000000001000 "y
b00000000000000000000000000001000 "1
19
b000000000000000000000000000010 {
b000000000000000000000000000001000 #=
1"r
b00000000000000000000000000001000 "*
b000000000000000000000000000001100 m
b0000000010 #x
#26
0"6
0v
0w
09
0#+
0"r
0#f
#31
b00000000000000000000000000001100 #0
b00000000000000000000000000001100 "A
b00000000000000000000000000010000 `
b00000000000000000000000000001100 C
1v
b00000000000000000000000000010000 #V
b000000000000000000000000000010000 "I
1w
b00000000000000000000000000001100 #H
1#+
b00000000000000000000000000001100 (
b00000000000000000000000000010000 b
1#f
b000000000000000000000000000001100 #X
b00000000000000000000000000001100 "
1"6
b00000000000000000000000000001100 "y
b00000000000000000000000000001100 "1
19
b000000000000000000000000000011 {
b000000000000000000000000000001100 #=
1"r
b00000000000000000000000000001100 "*
b000000000000000000000000000010000 m
b0000000011 #x
#36
0"6
0v
0w
09
0#+
0"r
0#f
#41
b00000000000000000000000000010000 #0
b00000000000000000000000000010000 "A
b00000000000000000000000000010100 `
b00000000000000000000000000010000 C
1v
b00000000000000000000000000010100 #V
b000000000000000000000000000010100 "I
1w
b00000000000000000000000000010000 #H
1#+
b00000000000000000000000000010000 (
b00000000000000000000000000010100 b
1#f
b000000000000000000000000000010000 #X
b00000000000000000000000000010000 "
1"6
b00000000000000000000000000010000 "y
b00000000000000000000000000010000 "1
19
b000000000000000000000000000100 {
b000000000000000000000000000010000 #=
1"r
b00000000000000000000000000010000 "*
b000000000000000000000000000010100 m
b0000000100 #x
#46
0"6
0v
0w
09
0#+
0"r
0#f
#51
b00000000000000000000000000010100 #0
b00000000000000000000000000010100 "A
b00000000000000000000000000011000 `
b00000000000000000000000000010100 C
1v
b00000000000000000000000000011000 #V
b000000000000000000000000000011000 "I
1w
b00000000000000000000000000010100 #H
1#+
b00000000000000000000000000010100 (
b00000000000000000000000000011000 b
1#f
b000000000000000000000000000010100 #X
b00000000000000000000000000010100 "
1"6
b00000000000000000000000000010100 "y
b00000000000000000000000000010100 "1
19
b000000000000000000000000000101 {
b000000000000000000000000000010100 #=
1"r
b00000000000000000000000000010100 "*
b000000000000000000000000000011000 m
b0000000101 #x
#56
0"6
0v
0w
09
0#+
0"r
0#f
#61
b00000000000000000000000000011000 #0
b00000000000000000000000000011000 "A
b00000000000000000000000000011100 `
b00000000000000000000000000011000 C
1v
b00000000000000000000000000011100 #V
b000000000000000000000000000011100 "I
1w
b00000000000000000000000000011000 #H
1#+
b00000000000000000000000000011000 (
b00000000000000000000000000011100 b
1#f
b000000000000000000000000000011000 #X
b00000000000000000000000000011000 "
1"6
b00000000000000000000000000011000 "y
b00000000000000000000000000011000 "1
19
b000000000000000000000000000110 {
b000000000000000000000000000011000 #=
1"r
b00000000000000000000000000011000 "*
b000000000000000000000000000011100 m
b0000000110 #x
#66
0"6
0v
0w
09
0#+
0"r
0#f
#71
b00000000000000000000000000011100 #0
b00000000000000000000000000011100 "A
b00000000000000000000000000100000 `
b00000000000000000000000000011100 C
1v
b00000000000000000000000000100000 #V
b000000000000000000000000000100000 "I
1w
b00000000000000000000000000011100 #H
1#+
b00000000000000000000000000011100 (
b00000000000000000000000000100000 b
1#f
b000000000000000000000000000011100 #X
b00000000000000000000000000011100 "
1"6
b00000000000000000000000000011100 "y
b00000000000000000000000000011100 "1
19
b000000000000000000000000000111 {
b000000000000000000000000000011100 #=
1"r
b00000000000000000000000000011100 "*
b000000000000000000000000000100000 m
b0000000111 #x
#76
0"6
0v
0w
09
0#+
0"r
0#f
#81
b00000000000000000000000000100000 #0
b00000000000000000000000000100000 "A
b00000000000000000000000000100100 `
b00000000000000000000000000100000 C
1v
b00000000000000000000000000100100 #V
b000000000000000000000000000100100 "I
1w
b00000000000000000000000000100000 #H
1#+
b00000000000000000000000000100000 (
b00000000000000000000000000100100 b
1#f
b000000000000000000000000000100000 #X
b00000000000000000000000000100000 "
1"6
b00000000000000000000000000100000 "y
b00000000000000000000000000100000 "1
19
b000000000000000000000000001000 {
b000000000000000000000000000100000 #=
1"r
b00000000000000000000000000100000 "*
b000000000000000000000000000100100 m
b0000001000 #x
#86
0"6
0v
0w
09
0#+
0"r
0#f
#91
b00000000000000000000000000100100 #0
b00000000000000000000000000100100 "A
b00000000000000000000000000101000 `
b00000000000000000000000000100100 C
1v
b00000000000000000000000000101000 #V
b000000000000000000000000000101000 "I
1w
b00000000000000000000000000100100 #H
1#+
b00000000000000000000000000100100 (
b00000000000000000000000000101000 b
1#f
b000000000000000000000000000100100 #X
b00000000000000000000000000100100 "
1"6
b00000000000000000000000000100100 "y
b00000000000000000000000000100100 "1
19
b000000000000000000000000001001 {
b000000000000000000000000000100100 #=
1"r
b00000000000000000000000000100100 "*
b000000000000000000000000000101000 m
b0000001001 #x
#96
0"6
0v
0w
09
0#+
0"r
0#f
#101
b00000000000000000000000000101000 #0
b00000000000000000000000000101000 "A
b00000000000000000000000000101100 `
b00000000000000000000000000101000 C
1v
b00000000000000000000000000101100 #V
b000000000000000000000000000101100 "I
1w
b00000000000000000000000000101000 #H
1#+
b00000000000000000000000000101000 (
b00000000000000000000000000101100 b
1#f
b000000000000000000000000000101000 #X
b00000000000000000000000000101000 "
1"6
b00000000000000000000000000101000 "y
b00000000000000000000000000101000 "1
19
b000000000000000000000000001010 {
b000000000000000000000000000101000 #=
1"r
b00000000000000000000000000101000 "*
b000000000000000000000000000101100 m
b0000001010 #x
#106
0"6
0v
0w
09
0#+
0"r
0#f
#111
b00000000000000000000000000101100 #0
b00000000000000000000000000101100 "A
b00000000000000000000000000110000 `
b00000000000000000000000000101100 C
1v
b00000000000000000000000000110000 #V
b000000000000000000000000000110000 "I
1w
b00000000000000000000000000101100 #H
1#+
b00000000000000000000000000101100 (
b00000000000000000000000000110000 b
1#f
b000000000000000000000000000101100 #X
b00000000000000000000000000101100 "
1"6
b00000000000000000000000000101100 "y
b00000000000000000000000000101100 "1
19
b000000000000000000000000001011 {
b000000000000000000000000000101100 #=
1"r
b00000000000000000000000000101100 "*
b000000000000000000000000000110000 m
b0000001011 #x
